<svg width="20" height="22" viewBox="0 0 20 22" fill="none" xmlns="http://www.w3.org/2000/svg">
<path fill-rule="evenodd" clip-rule="evenodd" d="M17 2H18C19.1 2 20 2.9 20 4V20C20 21.1 19.1 22 18 22H2C0.9 22 0 21.1 0 20V4C0 2.9 0.9 2 2 2H3V1C3 0.45 3.45 0 4 0C4.55 0 5 0.45 5 1V2H15V1C15 0.45 15.45 0 16 0C16.55 0 17 0.45 17 1V2ZM3 20H17C17.55 20 18 19.55 18 19V7H2V19C2 19.55 2.45 20 3 20Z" fill="#555555"/>
</svg>
